d:\research\micro_bench\src\x64\debug\pipeline.ilk
d:\research\micro_bench\src\x64\debug\pipeline.exe
d:\research\micro_bench\src\x64\debug\pipeline.pdb
d:\research\micro_bench\src\pipeline\x64\debug\pipeline.cu.cache
d:\research\micro_bench\src\pipeline\x64\debug\pipeline.cu.obj
d:\research\micro_bench\src\pipeline\x64\debug\pipeline.tlog\link.command.1.tlog
d:\research\micro_bench\src\pipeline\x64\debug\pipeline.tlog\link.read.1.tlog
d:\research\micro_bench\src\pipeline\x64\debug\pipeline.tlog\link.write.1.tlog
